     1  4.00002e-06     
     2  8.22198e-06     
     3  1.23776e-05     
     4  1.61841e-05     
     5  1.95601e-05     
     6  2.26132e-05     
     7  2.53793e-05     
     8  2.80268e-05     
     9  3.05888e-05     
    10  3.29846e-05     
    11  3.53224e-05     
    12  3.75448e-05     
    13   3.9714e-05     
    14  4.18027e-05     
    15  4.38418e-05     
    16  4.58426e-05     
    17   4.7745e-05     
    18  4.96333e-05     
    19  5.15201e-05     
    20  5.33244e-05     
    21  5.50975e-05     
    22  5.68821e-05     
    23  5.86128e-05     
    24  6.02992e-05     
    25   6.1998e-05     
    26   6.3659e-05     
    27  6.53016e-05     
    28  6.69404e-05     
    29  6.85315e-05     
    30  7.01137e-05     
    31  7.17204e-05     
    32  7.32763e-05     
    33  7.48002e-05     
    34  7.63509e-05     
    35  7.78652e-05     
    36  7.93846e-05     
    37  8.08776e-05     
    38  8.23806e-05     
    39  8.38326e-05     
    40  8.53045e-05     
    41  8.67823e-05     
    42  8.82285e-05     
    43  8.96536e-05     
    44  9.10834e-05     
    45  9.25044e-05     
    46   9.3916e-05     
    47  9.53515e-05     
    48  9.67417e-05     
    49  9.81128e-05     
    50   9.9515e-05     
    51  0.000100909     
    52  0.000102205     
    53  0.000103556     
    54  0.000104905     
    55  0.000108629     
    56   0.00010757     
    57  0.000108889     
    58  0.000110177     
    59  0.000111502     
    60  0.000112814     
