    1   3.4626e-06        
    2  6.86959e-06        
    3  9.40586e-06        
    4  1.13322e-05        
    5  1.28922e-05        
    6   1.4359e-05        
    7   1.5697e-05        
    8  1.68983e-05        
    9  1.80099e-05        
   10  1.90426e-05        
   11  2.00113e-05        
   12  2.08958e-05        
   13    2.177e-05        
   14  2.26005e-05        
   15  2.33683e-05        
   16  2.41039e-05        
   17  2.48145e-05        
   18  2.55182e-05        
   19    2.618e-05        
   20  2.67975e-05        
   21  2.74157e-05        
   22  2.80364e-05        
   23  2.86025e-05        
   24  2.91509e-05        
   25  2.97229e-05        
   26  3.02443e-05        
   27   3.0745e-05        
   28  3.12702e-05        
   29   3.1753e-05        
   30  3.22103e-05        
   31   3.2684e-05        
   32   3.3155e-05        
   33  3.35919e-05        
   34  3.40099e-05        
   35  3.44314e-05        
   36  3.48552e-05        
   37  3.52434e-05        
   38  3.56329e-05        
   39  3.60244e-05        
   40  3.63921e-05        
   41  3.67379e-05        
   42  3.71028e-05        
   43  3.74374e-05        
   44  3.77602e-05        
   45   3.8079e-05        
   46   3.8405e-05        
   47  3.87089e-05        
   48  3.89829e-05        
   49  3.92814e-05        
   50  3.95555e-05        
   51  3.98012e-05        
   52  4.00632e-05        
   53  4.03267e-05        
   54  4.05668e-05        
   55  4.07758e-05        
   56  4.10115e-05        
   57   4.1244e-05        
   58  4.14505e-05        
   59  4.16389e-05        
   60  4.18433e-05        
   61  4.20541e-05        
   62  4.22339e-05        
   63   4.2406e-05        
   64   4.2578e-05        
   65  4.27554e-05        
   66  4.29387e-05        
   67  4.30957e-05        
   68   4.3258e-05        
   69  4.33965e-05        
   70  4.35524e-05        
   71  4.37081e-05        
   72  4.38682e-05        
   73  4.40039e-05        
   74  4.41487e-05        
   75  4.42735e-05        
   76  4.44026e-05        
   77  4.45398e-05        
   78  4.46905e-05        
   79  4.48141e-05        
   80   4.4944e-05        
   81  4.50543e-05        
   82  4.51842e-05        
   83   4.5312e-05        
   84  4.54529e-05        
   85  4.55714e-05        
   86  4.56797e-05        
   87  4.58013e-05        
   88  4.59391e-05        
   89  4.60582e-05        
   90  4.61806e-05        
   91  4.62866e-05        
   92  4.64003e-05        
   93  4.65177e-05        
   94  4.66475e-05        
   95  4.67644e-05        
   96  4.68882e-05        
   97  4.70184e-05        
   98  4.71315e-05        
   99  4.72447e-05        
  100  4.73522e-05        
  101  4.74751e-05        
  102  4.76074e-05        
  103  4.77255e-05        
  104  4.78317e-05        
  105  4.79384e-05        
  106  4.80649e-05        
  107  4.81875e-05        
  108  4.83034e-05        
  109  4.84412e-05        
  110   4.8563e-05        
  111  4.86809e-05        
  112  4.87868e-05        
  113  4.89127e-05        
  114  4.90455e-05        
  115  4.91699e-05        
  116  4.92961e-05        
  117  4.93978e-05        
  118  4.95253e-05        
  119  4.96535e-05        
  120   4.9794e-05        
  121  4.99096e-05        
  122  5.00384e-05        
  123  5.01532e-05        
  124  5.02718e-05        
  125  5.04004e-05        
  126  5.05383e-05        
  127  5.06721e-05        
  128  5.07999e-05        
  129  5.09205e-05        
  130  5.10505e-05        
  131  5.11885e-05        
  132  5.13251e-05        
  133  5.14468e-05        
  134   5.1573e-05        
  135   5.1727e-05        
  136  5.18607e-05        
  137  5.19793e-05        
  138  5.21196e-05        
  139  5.22653e-05        
  140  5.24125e-05        
  141  5.25524e-05        
  142  5.26757e-05        
  143  5.28254e-05        
  144  5.29774e-05        
  145   5.3124e-05        
  146  5.32655e-05        
  147  5.34015e-05        
  148  5.35557e-05        
  149  5.37244e-05        
  150  5.38781e-05        
  151  5.40355e-05        
  152  5.41804e-05        
  153  5.43359e-05        
  154  5.45012e-05        
  155  5.46709e-05        
  156  5.48314e-05        
  157  5.49903e-05        
  158  5.51566e-05        
  159  5.53365e-05        
  160   5.5506e-05        
  161  5.56778e-05        
  162  5.58403e-05        
  163  5.60114e-05        
  164  5.61912e-05        
  165  5.63636e-05        
  166  5.65637e-05        
  167  5.67464e-05        
  168  5.69329e-05        
  169  5.71062e-05        
  170  5.73048e-05        
  171   5.7505e-05        
  172  5.77089e-05        
  173  5.79092e-05        
  174  5.81047e-05        
  175   5.8319e-05        
  176  5.85415e-05        
  177  5.87431e-05        
  178  5.89678e-05        
  179  5.92138e-05        
  180  5.94336e-05        
  181  5.96618e-05        
  182  5.99246e-05        
  183  6.01664e-05        
  184  6.03959e-05        
  185  6.06637e-05        
  186   6.0941e-05        
  187  6.12127e-05        
  188   6.1485e-05        
  189  6.17723e-05        
  190  6.20809e-05        
  191  6.23994e-05        
  192  6.26964e-05        
  193  6.30336e-05        
  194  6.33911e-05        
  195  6.37644e-05        
  196  6.41468e-05        
  197  6.45377e-05        
  198  6.49623e-05        
  199  6.54148e-05        
  200   6.5917e-05        
  201  6.64174e-05        
  202  6.69623e-05        
  203  6.75268e-05        
  204  6.81423e-05        
  205   6.8806e-05        
  206  6.95017e-05        
  207  7.02475e-05        
  208  7.10299e-05        
  209  7.18631e-05        
  210  7.27754e-05        
  211  7.37024e-05        
  212  7.46881e-05        
  213  7.57341e-05        
  214  7.68261e-05        
  215  7.79898e-05        
  216  7.92094e-05        
  217  8.04626e-05        
  218  8.17588e-05        
  219  8.31405e-05        
  220  8.45534e-05        
