[0] ToT Mean = 3.52911 +- 1.53867
[0] ToT Mean = 2.01493 +- 0.339218
[0] ToT Mean = 3.61275 +- 0.903323
[0] ToT Mean = 5.1779 +- 1.03811
[0] ToT Mean = 6.29675 +- 1.13607
[0] ToT Mean = 7.15094 +- 1.2734
[0] ToT Mean = 7.82583 +- 1.39799
[0] ToT Mean = 8.39373 +- 1.49786
[0] ToT Mean = 8.8901 +- 1.57239
[0] ToT Mean = 9.3447 +- 1.6352
[0] ToT Mean = 9.76695 +- 1.68482
