[0] ToT Mean = 3.40137 +- 1.46695
[0] ToT Mean = 2.32479 +- 2.00354
[0] ToT Mean = 2.69591 +- 0.634088
[0] ToT Mean = 4.60643 +- 1.03031
[0] ToT Mean = 5.96239 +- 1.2473
[0] ToT Mean = 6.93555 +- 1.43777
[0] ToT Mean = 7.68445 +- 1.59576
[0] ToT Mean = 8.33979 +- 1.71077
[0] ToT Mean = 8.93118 +- 1.79986
[0] ToT Mean = 9.48685 +- 1.86753
[0] ToT Mean = 10.0353 +- 1.92527
