[0] ToT Mean = 3.54838 +- 1.53911
[0] ToT Mean = 2.01441 +- 0.341025
[0] ToT Mean = 3.60488 +- 0.902171
[0] ToT Mean = 5.17772 +- 1.03491
[0] ToT Mean = 6.29187 +- 1.12988
[0] ToT Mean = 7.14741 +- 1.26466
[0] ToT Mean = 7.8271 +- 1.39249
[0] ToT Mean = 8.39571 +- 1.49211
[0] ToT Mean = 8.89329 +- 1.56667
[0] ToT Mean = 9.34886 +- 1.63044
[0] ToT Mean = 9.76912 +- 1.67935
