[0] ToT Mean = 3.4254 +- 1.47459
[0] ToT Mean = 2.36697 +- 2.12741
[0] ToT Mean = 2.70638 +- 0.643198
[0] ToT Mean = 4.61606 +- 1.04599
[0] ToT Mean = 5.96775 +- 1.26603
[0] ToT Mean = 6.93581 +- 1.45945
[0] ToT Mean = 7.68035 +- 1.61609
[0] ToT Mean = 8.33544 +- 1.72905
[0] ToT Mean = 8.92716 +- 1.82062
[0] ToT Mean = 9.48225 +- 1.88793
[0] ToT Mean = 10.0313 +- 1.94595
