[0] ToT Mean = 3.58196 +- 1.61893
[0] ToT Mean = 2.05655 +- 0.523124
[0] ToT Mean = 3.65374 +- 0.966143
[0] ToT Mean = 5.1996 +- 1.08913
[0] ToT Mean = 6.32159 +- 1.16349
[0] ToT Mean = 7.19055 +- 1.28534
[0] ToT Mean = 7.88691 +- 1.41047
[0] ToT Mean = 8.46897 +- 1.51057
[0] ToT Mean = 8.97116 +- 1.58607
[0] ToT Mean = 9.4263 +- 1.64873
[0] ToT Mean = 9.84272 +- 1.70404
